…
``` r
census_pop_cleaned <- census_pop %>%
  group_by(fipstate, year) %>%
  summarise(pop = sum(pop, na.rm=T)) %>%
  ungroup() %>%
  filter(year == 1990 | year == 2016)
```

``` r
census_pop_cleaned %>%
  left_join(state_shape, by=c("fipstate" = "STATEFP")) %>%
  filter(!NAME %in% c("Alaska", "Hawaii"))
```

    ## # A tibble: 98 × 20
    ##    fipstate year       pop OBJECTID REGION DIVISION STATENS  GEOID STUSPS NAME  
    ##    <chr>    <chr>    <dbl>    <int> <chr>  <chr>    <chr>    <chr> <chr>  <chr> 
    ##  1 01       1990   4050055       32 3      6        01779775 01    AL     Alaba…
    ##  2 01       2016   9727050       32 3      6        01779775 01    AL     Alaba…
    ##  3 04       1990   3684097       54 4      8        01779777 04    AZ     Arizo…
    ##  4 04       2016  13882144       54 4      8        01779777 04    AZ     Arizo…
    ##  5 05       1990   2356586        2 3      7        00068085 05    AR     Arkan…
    ##  6 05       2016   5979836        2 3      7        00068085 05    AR     Arkan…
    ##  7 06       1990  29959515       56 4      9        01779778 06    CA     Calif…
    ##  8 06       2016  78334234       56 4      9        01779778 06    CA     Calif…
    ##  9 08       1990   3307618       43 4      8        01779779 08    CO     Color…
    ## 10 08       2016  11078430       43 4      8        01779779 08    CO     Color…
    ## # ℹ 88 more rows
    ## # ℹ 10 more variables: LSAD <chr>, MTFCC <chr>, FUNCSTAT <chr>, ALAND <dbl>,
    ## #   AWATER <dbl>, INTPTLAT <chr>, INTPTLON <chr>, Shape_Leng <dbl>,
    ## #   Shape_Area <dbl>, geometry <MULTIPOLYGON [m]>
…
